…
**4. Your answer above doesn't tell the whole story since life expectancy varies by region. Make a summary that shows the min, mean, and max life expectancy by continent for all years represented in the data.**

```r
gapminder %>% 
  group_by(continent, year) %>% 
  summarise(mean_life_expectancy = mean(life_exp),
            max_life_expectancy = max(life_exp),
            min_life_expectancy = min(life_exp), .groups = "keep" )
```

```
## # A tibble: 60 x 5
## # Groups:   continent, year [60]
##    continent  year mean_life_expectancy max_life_expectancy min_life_expectancy
##    <fct>     <int>                <dbl>               <dbl>               <dbl>
##  1 Africa     1952                 39.1                52.7                30  
##  2 Africa     1957                 41.3                58.1                31.6
##  3 Africa     1962                 43.3                60.2                32.8
##  4 Africa     1967                 45.3                61.6                34.1
##  5 Africa     1972                 47.5                64.3                35.4
##  6 Africa     1977                 49.6                67.1                36.8
##  7 Africa     1982                 51.6                69.9                38.4
##  8 Africa     1987                 53.3                71.9                39.9
##  9 Africa     1992                 53.6                73.6                23.6
## 10 Africa     1997                 53.6                74.8                36.1
## # … with 50 more rows
```
…
