Lab 12 Homework
…
wolves$pop <- as.factor(wolves$pop)

wolves %>% summarise(n_wolves_pop = n_distinct(pop))

## # A tibble: 1 x 1
##   n_wolves_pop
##          <int>
## 1           17

wolves_l48<- wolves %>% 
  filter(lat < 49) %>% 
  arrange(desc(lat))
wolves_l48

## # A tibble: 1,169 x 23
##    pop    year age.cat sex   color   lat  long habitat human pop.density
##    <fct> <dbl> <chr>   <chr> <chr> <dbl> <dbl>   <dbl> <dbl>       <dbl>
##  1 SNF    2010 S       M     G      47.7 -91.5  32018. 4558.        25.3
##  2 SNF    2010 P       M     G      47.7 -91.5  32018. 4558.        25.3
##  3 SNF    2010 S       F     G      47.7 -91.5  32018. 4558.        25.3
##  4 SNF    2010 S       F     G      47.7 -91.5  32018. 4558.        25.3
##  5 SNF    2010 P       F     G      47.7 -91.5  32018. 4558.        25.3
##  6 SNF    2010 P       M     G      47.7 -91.5  32018. 4558.        25.3
##  7 SNF    2010 S       F     G      47.7 -91.5  32018. 4558.        25.3
##  8 SNF    2010 A       F     G      47.7 -91.5  32018. 4558.        25.3
##  9 SNF    2010 S       M     G      47.7 -91.5  32018. 4558.        25.3
## 10 SNF    2010 S       M     G      47.7 -91.5  32018. 4558.        25.3
## #  with 1,159 more rows, and 13 more variables: pack.size <dbl>,
## #   standard.habitat <dbl>, standard.human <dbl>, standard.pop <dbl>,
## #   standard.packsize <dbl>, standard.latitude <dbl>, standard.longitude <dbl>,
## #   cav.binary <dbl>, cdv.binary <dbl>, cpv.binary <dbl>, chv.binary <dbl>,
## #   neo.binary <dbl>, toxo.binary <dbl>
…
